{
  "count": 78,
  "next": "https://wger.de/api/v2/video/?limit=20&offset=20",
  "previous": null,
  "results": [
    {
      "id": 1,
      "uuid": "fff4c294-93f0-4926-b3a2-bf59ad4afaa5",
      "exercise_base": 512,
      "exercise_base_uuid": "00fcf603-b0d0-48d2-9b5e-c7f0d510d46c",
      "video": "https://wger.de/media/exercise-video/512/fff4c294-93f0-4926-b3a2-bf59ad4afaa5.MOV",
      "is_main": false,
      "size": 34332925,
      "duration": "10.49",
      "width": 1920,
      "height": 1080,
      "codec": "hevc",
      "codec_long": "H.265 / HEVC (High Efficiency Video Coding)",
      "license": 2,
      "license_title": "",
      "license_object_url": "",
      "license_author": "Goulart",
      "license_author_url": "",
      "license_derivative_source_url": "",
      "author_history": [
        "Goulart"
      ]
    },
    {
      "id": 2,
      "uuid": "307e7276-a14d-4ea0-b579-f5b0dbc6f5af",
      "exercise_base": 507,
      "exercise_base_uuid": "2e7ffff9-e603-4b28-98c8-31d1a6ce8cd9",
      "video": "https://wger.de/media/exercise-video/507/307e7276-a14d-4ea0-b579-f5b0dbc6f5af.MOV",
      "is_main": false,
      "size": 38136083,
      "duration": "13.00",
      "width": 1920,
      "height": 1080,
      "codec": "hevc",
      "codec_long": "H.265 / HEVC (High Efficiency Video Coding)",
      "license": 2,
      "license_title": "",
      "license_object_url": "",
      "license_author": "Goulart",
      "license_author_url": "",
      "license_derivative_source_url": "",
      "author_history": [
        "Goulart"
      ]
    },
    {
      "id": 3,
      "uuid": "6b6054b5-9236-4a63-8392-6ea7a9010ca6",
      "exercise_base": 507,
      "exercise_base_uuid": "2e7ffff9-e603-4b28-98c8-31d1a6ce8cd9",
      "video": "https://wger.de/media/exercise-video/507/6b6054b5-9236-4a63-8392-6ea7a9010ca6.MOV",
      "is_main": false,
      "size": 52134396,
      "duration": "17.69",
      "width": 1920,
      "height": 1080,
      "codec": "hevc",
      "codec_long": "H.265 / HEVC (High Efficiency Video Coding)",
      "license": 2,
      "license_title": "",
      "license_object_url": "",
      "license_author": "Goulart",
      "license_author_url": "",
      "license_derivative_source_url": "",
      "author_history": [
        "Goulart"
      ]
    },
    {
      "id": 4,
      "uuid": "e96295da-58b8-4b6f-921e-4cb1af3c6cfc",
      "exercise_base": 507,
      "exercise_base_uuid": "2e7ffff9-e603-4b28-98c8-31d1a6ce8cd9",
      "video": "https://wger.de/media/exercise-video/507/e96295da-58b8-4b6f-921e-4cb1af3c6cfc.MOV",
      "is_main": false,
      "size": 390563423,
      "duration": "29.50",
      "width": 3840,
      "height": 2160,
      "codec": "hevc",
      "codec_long": "H.265 / HEVC (High Efficiency Video Coding)",
      "license": 2,
      "license_title": "",
      "license_object_url": "",
      "license_author": "Goulart",
      "license_author_url": "",
      "license_derivative_source_url": "",
      "author_history": [
        "Goulart"
      ]
    },
    {
      "id": 5,
      "uuid": "9896d82e-d8b6-48af-bdd5-b8545dc523e9",
      "exercise_base": 349,
      "exercise_base_uuid": "57263316-6f34-4539-952b-b07e09bac3ba",
      "video": "https://wger.de/media/exercise-video/349/9896d82e-d8b6-48af-bdd5-b8545dc523e9.MOV",
      "is_main": false,
      "size": 33127028,
      "duration": "13.22",
      "width": 1920,
      "height": 1080,
      "codec": "hevc",
      "codec_long": "H.265 / HEVC (High Efficiency Video Coding)",
      "license": 2,
      "license_title": "",
      "license_object_url": "",
      "license_author": "Goulart",
      "license_author_url": "",
      "license_derivative_source_url": "",
      "author_history": [
        "Goulart"
      ]
    },
    {
      "id": 6,
      "uuid": "de69928a-8a35-4096-821c-1f46de5e0e03",
      "exercise_base": 348,
      "exercise_base_uuid": "63375f5b-2d81-471c-bea4-fc3d207e96cb",
      "video": "https://wger.de/media/exercise-video/348/de69928a-8a35-4096-821c-1f46de5e0e03.MOV",
      "is_main": false,
      "size": 43874331,
      "duration": "18.26",
      "width": 1920,
      "height": 1080,
      "codec": "hevc",
      "codec_long": "H.265 / HEVC (High Efficiency Video Coding)",
      "license": 2,
      "license_title": "",
      "license_object_url": "",
      "license_author": "Goulart",
      "license_author_url": "",
      "license_derivative_source_url": "",
      "author_history": [
        "Goulart"
      ]
    },
    {
      "id": 7,
      "uuid": "28b53647-27e7-47cf-8852-2ee666c8b628",
      "exercise_base": 82,
      "exercise_base_uuid": "6f79b381-98a4-40d5-8a45-3bb0558be6fe",
      "video": "https://wger.de/media/exercise-video/82/28b53647-27e7-47cf-8852-2ee666c8b628.MOV",
      "is_main": false,
      "size": 13386307,
      "duration": "7.60",
      "width": 1920,
      "height": 1080,
      "codec": "hevc",
      "codec_long": "H.265 / HEVC (High Efficiency Video Coding)",
      "license": 2,
      "license_title": "",
      "license_object_url": "",
      "license_author": "Goulart",
      "license_author_url": "",
      "license_derivative_source_url": "",
      "author_history": [
        "Goulart"
      ]
    },
    {
      "id": 8,
      "uuid": "ebf1e6d2-df48-44b8-a791-97f77e801bf3",
      "exercise_base": 82,
      "exercise_base_uuid": "6f79b381-98a4-40d5-8a45-3bb0558be6fe",
      "video": "https://wger.de/media/exercise-video/82/ebf1e6d2-df48-44b8-a791-97f77e801bf3.MOV",
      "is_main": false,
      "size": 17879929,
      "duration": "6.97",
      "width": 1920,
      "height": 1080,
      "codec": "hevc",
      "codec_long": "H.265 / HEVC (High Efficiency Video Coding)",
      "license": 2,
      "license_title": "",
      "license_object_url": "",
      "license_author": "Goulart",
      "license_author_url": "",
      "license_derivative_source_url": "",
      "author_history": [
        "Goulart"
      ]
    },
    {
      "id": 9,
      "uuid": "437d79db-ac8f-49e2-8780-0365f94ee01c",
      "exercise_base": 82,
      "exercise_base_uuid": "6f79b381-98a4-40d5-8a45-3bb0558be6fe",
      "video": "https://wger.de/media/exercise-video/82/437d79db-ac8f-49e2-8780-0365f94ee01c.MOV",
      "is_main": false,
      "size": 15973150,
      "duration": "6.37",
      "width": 1920,
      "height": 1080,
      "codec": "hevc",
      "codec_long": "H.265 / HEVC (High Efficiency Video Coding)",
      "license": 2,
      "license_title": "",
      "license_object_url": "",
      "license_author": "Goulart",
      "license_author_url": "",
      "license_derivative_source_url": "",
      "author_history": [
        "Goulart"
      ]
    },
    {
      "id": 10,
      "uuid": "7cfe6d04-5e59-4d0b-937b-b8f4ee10602d",
      "exercise_base": 82,
      "exercise_base_uuid": "6f79b381-98a4-40d5-8a45-3bb0558be6fe",
      "video": "https://wger.de/media/exercise-video/82/7cfe6d04-5e59-4d0b-937b-b8f4ee10602d.MOV",
      "is_main": false,
      "size": 22994584,
      "duration": "9.80",
      "width": 1920,
      "height": 1080,
      "codec": "hevc",
      "codec_long": "H.265 / HEVC (High Efficiency Video Coding)",
      "license": 2,
      "license_title": "",
      "license_object_url": "",
      "license_author": "Goulart",
      "license_author_url": "",
      "license_derivative_source_url": "",
      "author_history": [
        "Goulart"
      ]
    },
    {
      "id": 11,
      "uuid": "dbfd396b-1aab-4a64-a50b-2c31ff0a2cf7",
      "exercise_base": 543,
      "exercise_base_uuid": "5912d7ed-6a0e-4b4c-b30a-fc9f3f890fc1",
      "video": "https://wger.de/media/exercise-video/543/dbfd396b-1aab-4a64-a50b-2c31ff0a2cf7.MOV",
      "is_main": false,
      "size": 23511495,
      "duration": "12.27",
      "width": 1920,
      "height": 1080,
      "codec": "hevc",
      "codec_long": "H.265 / HEVC (High Efficiency Video Coding)",
      "license": 2,
      "license_title": "",
      "license_object_url": "",
      "license_author": "Goulart",
      "license_author_url": "",
      "license_derivative_source_url": "",
      "author_history": [
        "Goulart"
      ]
    },
    {
      "id": 12,
      "uuid": "64f33c19-1d96-4b7c-af17-6c6a4941c614",
      "exercise_base": 567,
      "exercise_base_uuid": "87affa4b-395b-437c-9581-2bd20ea5aa7c",
      "video": "https://wger.de/media/exercise-video/567/64f33c19-1d96-4b7c-af17-6c6a4941c614.MOV",
      "is_main": false,
      "size": 62860017,
      "duration": "23.13",
      "width": 1920,
      "height": 1080,
      "codec": "hevc",
      "codec_long": "H.265 / HEVC (High Efficiency Video Coding)",
      "license": 2,
      "license_title": "",
      "license_object_url": "",
      "license_author": "Goulart",
      "license_author_url": "",
      "license_derivative_source_url": "",
      "author_history": [
        "Goulart"
      ]
    },
    {
      "id": 13,
      "uuid": "a325ae2e-686b-4a1f-aff2-ba37fa3fa157",
      "exercise_base": 590,
      "exercise_base_uuid": "6e46833d-fd83-4c1a-90af-eb3f3a917199",
      "video": "https://wger.de/media/exercise-video/590/a325ae2e-686b-4a1f-aff2-ba37fa3fa157.MOV",
      "is_main": false,
      "size": 27735168,
      "duration": "20.71",
      "width": 1920,
      "height": 1080,
      "codec": "hevc",
      "codec_long": "H.265 / HEVC (High Efficiency Video Coding)",
      "license": 2,
      "license_title": "",
      "license_object_url": "",
      "license_author": "Goulart",
      "license_author_url": "",
      "license_derivative_source_url": "",
      "author_history": [
        "Goulart"
      ]
    },
    {
      "id": 14,
      "uuid": "35b7b625-77fd-4c09-8c57-3ad0f2f23175",
      "exercise_base": 622,
      "exercise_base_uuid": "7ce443b6-eb84-4f65-b05f-461c1cc8bcc0",
      "video": "https://wger.de/media/exercise-video/622/35b7b625-77fd-4c09-8c57-3ad0f2f23175.MOV",
      "is_main": false,
      "size": 30336315,
      "duration": "16.79",
      "width": 1920,
      "height": 1080,
      "codec": "hevc",
      "codec_long": "H.265 / HEVC (High Efficiency Video Coding)",
      "license": 2,
      "license_title": "",
      "license_object_url": "",
      "license_author": "Goulart",
      "license_author_url": "",
      "license_derivative_source_url": "",
      "author_history": [
        "Goulart"
      ]
    },
    {
      "id": 15,
      "uuid": "461171e5-2b16-407d-bf27-27aeef43f105",
      "exercise_base": 622,
      "exercise_base_uuid": "7ce443b6-eb84-4f65-b05f-461c1cc8bcc0",
      "video": "https://wger.de/media/exercise-video/622/461171e5-2b16-407d-bf27-27aeef43f105.MOV",
      "is_main": false,
      "size": 27311167,
      "duration": "16.43",
      "width": 1920,
      "height": 1080,
      "codec": "hevc",
      "codec_long": "H.265 / HEVC (High Efficiency Video Coding)",
      "license": 2,
      "license_title": "",
      "license_object_url": "",
      "license_author": "Goulart",
      "license_author_url": "",
      "license_derivative_source_url": "",
      "author_history": [
        "Goulart"
      ]
    },
    {
      "id": 16,
      "uuid": "4349a6f6-4cee-4c09-828b-c5e7fc2c1ff1",
      "exercise_base": 538,
      "exercise_base_uuid": "275fb49f-975c-4d6e-9d63-2c86ed740f40",
      "video": "https://wger.de/media/exercise-video/538/4349a6f6-4cee-4c09-828b-c5e7fc2c1ff1.MOV",
      "is_main": false,
      "size": 6205424,
      "duration": "19.92",
      "width": 1920,
      "height": 1080,
      "codec": "h264",
      "codec_long": "H.264 / AVC / MPEG-4 AVC / MPEG-4 part 10",
      "license": 2,
      "license_title": "",
      "license_object_url": "",
      "license_author": "Goulart",
      "license_author_url": "",
      "license_derivative_source_url": "",
      "author_history": [
        "Goulart"
      ]
    },
    {
      "id": 17,
      "uuid": "080c799b-8afd-4130-8d72-9cef0cd79f54",
      "exercise_base": 75,
      "exercise_base_uuid": "28321cf3-70e6-48a4-ade1-d11382180cb3",
      "video": "https://wger.de/media/exercise-video/75/080c799b-8afd-4130-8d72-9cef0cd79f54.MOV",
      "is_main": false,
      "size": 4543158,
      "duration": "14.16",
      "width": 1920,
      "height": 1080,
      "codec": "h264",
      "codec_long": "H.264 / AVC / MPEG-4 AVC / MPEG-4 part 10",
      "license": 2,
      "license_title": "",
      "license_object_url": "",
      "license_author": "Goulart",
      "license_author_url": "",
      "license_derivative_source_url": "",
      "author_history": [
        "Goulart"
      ]
    },
    {
      "id": 18,
      "uuid": "a8263fe5-3015-41e3-9781-2d255adcea63",
      "exercise_base": 75,
      "exercise_base_uuid": "28321cf3-70e6-48a4-ade1-d11382180cb3",
      "video": "https://wger.de/media/exercise-video/75/a8263fe5-3015-41e3-9781-2d255adcea63.MOV",
      "is_main": false,
      "size": 9894638,
      "duration": "30.09",
      "width": 1920,
      "height": 1080,
      "codec": "h264",
      "codec_long": "H.264 / AVC / MPEG-4 AVC / MPEG-4 part 10",
      "license": 2,
      "license_title": "",
      "license_object_url": "",
      "license_author": "Goulart",
      "license_author_url": "",
      "license_derivative_source_url": "",
      "author_history": [
        "Goulart"
      ]
    },
    {
      "id": 19,
      "uuid": "9d803f97-0a48-4483-8f1c-ee5b19d6021e",
      "exercise_base": 75,
      "exercise_base_uuid": "28321cf3-70e6-48a4-ade1-d11382180cb3",
      "video": "https://wger.de/media/exercise-video/75/9d803f97-0a48-4483-8f1c-ee5b19d6021e.MOV",
      "is_main": false,
      "size": 9938046,
      "duration": "28.26",
      "width": 1920,
      "height": 1080,
      "codec": "h264",
      "codec_long": "H.264 / AVC / MPEG-4 AVC / MPEG-4 part 10",
      "license": 2,
      "license_title": "",
      "license_object_url": "",
      "license_author": "Goulart",
      "license_author_url": "",
      "license_derivative_source_url": "",
      "author_history": [
        "Goulart"
      ]
    },
    {
      "id": 20,
      "uuid": "c9cbd391-1e22-4014-8794-04630c80665f",
      "exercise_base": 75,
      "exercise_base_uuid": "28321cf3-70e6-48a4-ade1-d11382180cb3",
      "video": "https://wger.de/media/exercise-video/75/c9cbd391-1e22-4014-8794-04630c80665f.MOV",
      "is_main": false,
      "size": 4576193,
      "duration": "11.28",
      "width": 1920,
      "height": 1080,
      "codec": "h264",
      "codec_long": "H.264 / AVC / MPEG-4 AVC / MPEG-4 part 10",
      "license": 2,
      "license_title": "",
      "license_object_url": "",
      "license_author": "Goulart",
      "license_author_url": "",
      "license_derivative_source_url": "",
      "author_history": [
        "Goulart"
      ]
    }
  ]
}