{
  "count": 399,
  "next": "https://wger.de/api/v2/exercise/?language=2&limit=20&offset=20",
  "previous": null,
  "results": [
    {
      "id": 345,
      "uuid": "c788d643-150a-4ac7-97ef-84643c6419bf",
      "name": "2 Handed Kettlebell Swing",
      "exercise_base": 9,
      "description": "<p>Two Handed Russian Style Kettlebell swing</p>",
      "created": "2023-08-06T10:17:17.349574+02:00",
      "category": 10,
      "muscles": [],
      "muscles_secondary": [],
      "equipment": [
        10
      ],
      "language": 2,
      "license": 2,
      "license_author": "deusinvictus",
      "variations": [
        345,
        249
      ],
      "author_history": [
        "deusinvictus"
      ]
    },
    {
      "id": 2078,
      "uuid": "bece2c5e-aadc-4d20-bde2-64b5b53f53f0",
      "name": "3D lunge warmup",
      "exercise_base": 1115,
      "description": "As a warmup, use light dumbbells, one in each hand. Lunge in alternating directions, forward, sideways, backwards and 45 degree angles.",
      "created": "2023-08-06T10:17:17.349574+02:00",
      "category": 15,
      "muscles": [],
      "muscles_secondary": [],
      "equipment": [
        3
      ],
      "language": 2,
      "license": 2,
      "license_author": "philip",
      "variations": [],
      "author_history": [
        "philip"
      ]
    },
    {
      "id": 1731,
      "uuid": "66fe654d-3379-46e8-95dc-23e3ce56f25c",
      "name": "4-count burpees",
      "exercise_base": 997,
      "description": "<p>Starting position:</p><p>Stand straight, feet hip-width apart.</p><p>Steps:</p><ol><li>Squat low and support yourself on the floor with your hands between the knees and in front of your feet, your back straight.</li><li>Keeping your hands on the floor, jump your legs backward into high plank position.</li><li>Jump your feet forward to return to the squat position.</li><li>Repeat.</li></ol>",
      "created": "2023-08-06T10:17:17.349574+02:00",
      "category": 11,
      "muscles": [],
      "muscles_secondary": [],
      "equipment": [
        7
      ],
      "language": 2,
      "license": 2,
      "license_author": "Miroslav Mazel (imported from Feeel)",
      "variations": [],
      "author_history": [
        "mondstern (imported from Feeel)",
        "Miroslav Mazel (imported from Feeel)"
      ]
    },
    {
      "id": 2145,
      "uuid": "5be194a2-42db-491b-9789-16dc23754c64",
      "name": "Abdominales sovieticas",
      "exercise_base": 1189,
      "description": "sentado en el suelo agarramos la pesa rusa, flexionamos las piernas y las separamos del suelo. Ahora llevaremos a un lado y otro la pesa",
      "created": "2023-08-06T10:17:17.349574+02:00",
      "category": 10,
      "muscles": [
        6
      ],
      "muscles_secondary": [],
      "equipment": [
        10
      ],
      "language": 2,
      "license": 2,
      "license_author": null,
      "variations": [
        2145
      ],
      "author_history": []
    },
    {
      "id": 1061,
      "uuid": "60d8018d-296f-4c62-a80b-f609a25d34ea",
      "name": "Abdominal Stabilization",
      "exercise_base": 56,
      "description": "",
      "created": "2023-08-06T10:17:17.349574+02:00",
      "category": 10,
      "muscles": [
        6
      ],
      "muscles_secondary": [
        14
      ],
      "equipment": [
        4
      ],
      "language": 2,
      "license": 2,
      "license_author": "wger.de",
      "variations": [],
      "author_history": [
        "wger.de"
      ]
    },
    {
      "id": 2055,
      "uuid": "5eda0a41-3a58-4424-acdb-5a02a4e5c113",
      "name": "Abduktion im Stand",
      "exercise_base": 1096,
      "description": "Das Training des stabilen Standes dominat auf einem Bein ist beiseitig entscheidend. Einerseits um Beschwerden vorzubeugen und andererseits um eine stabile Basis zu legen.Die übende Person stellt sich in die gewohnte Standposition und versucht bei stabilem Oberkörper das unbelastete Bein wiederholt zu heben und und in Hüfte und Knie zu beugen und wieder zu senken. Die Bewegung wird jedenfalls auch mit der anderen Seite wiederholt.\nDie Übung trainiert die Stabilität der hüftumgebenden Muskulatur",
      "created": "2023-08-06T10:17:17.349574+02:00",
      "category": 9,
      "muscles": [],
      "muscles_secondary": [],
      "equipment": [
        7
      ],
      "language": 2,
      "license": 2,
      "license_author": "tregga",
      "variations": [],
      "author_history": [
        "tregga"
      ]
    },
    {
      "id": 2056,
      "uuid": "8d125c27-f531-4caa-89da-7dc20bebfa49",
      "name": "Abduktion im Stand",
      "exercise_base": 1097,
      "description": "Das Training des stabilen Standes dominat auf einem Bein ist beiseitig entscheidend. Einerseits um Beschwerden vorzubeugen und andererseits um eine stabile Basis zu legen.Die übende Person stellt sich in die gewohnte Standposition und versucht bei stabilem Oberkörper das unbelastete Bein wiederholt zu heben und und in Hüfte und Knie zu beugen und wieder zu senken. Die Bewegung wird jedenfalls auch mit der anderen Seite wiederholt.\nDie Übung trainiert die Stabilität der hüftumgebenden Muskulatur",
      "created": "2023-08-06T10:17:17.349574+02:00",
      "category": 9,
      "muscles": [],
      "muscles_secondary": [],
      "equipment": [
        7
      ],
      "language": 2,
      "license": 2,
      "license_author": "tregga",
      "variations": [],
      "author_history": [
        "tregga"
      ]
    },
    {
      "id": 2157,
      "uuid": "61ced0a5-2faa-4f5f-b5e6-d4d5dc805e58",
      "name": "Adduktorenmaschine",
      "exercise_base": 1199,
      "description": "Hinsetzen, Beine in die Auflage legen/gegen die Polster drücken, Beine zusammendrücken bis die Auflagen aneinander stoßen",
      "created": "2023-10-21T12:52:38.038202+02:00",
      "category": 9,
      "muscles": [],
      "muscles_secondary": [],
      "equipment": [],
      "language": 2,
      "license": 2,
      "license_author": null,
      "variations": [],
      "author_history": []
    },
    {
      "id": 2063,
      "uuid": "b6771fbc-f99a-477a-be36-52b97dc9a952",
      "name": "Alternate back lunges",
      "exercise_base": 1102,
      "description": "The posterior muscles of the buttocks, hamstrings, soleus and gastrocnemius are trained more",
      "created": "2023-08-06T10:17:17.349574+02:00",
      "category": 9,
      "muscles": [
        8,
        10
      ],
      "muscles_secondary": [],
      "equipment": [
        7
      ],
      "language": 2,
      "license": 2,
      "license_author": "clafal",
      "variations": [],
      "author_history": [
        "clafal"
      ]
    },
    {
      "id": 1907,
      "uuid": "ad8b39c2-fcf1-47fd-b096-e40defd13f3a",
      "name": "Alternating bicep curls",
      "exercise_base": 1012,
      "description": "<p>Starting position:</p><p>Start standing up with dumbbells in each hand, your back straight and feet hip-width apart. Your arms should be relaxed, pointing down. Your knees should be slightly bent, your abs contracted, and your shoulders down.</p><p>Steps:</p><ol><li>Bend one arm at the elbow, bringing the dumbbell up to your shoulder. Your upper arm should remain motionless during this movement.</li><li>Bring the dumbbell back down until your arm is in its original relaxed position.</li><li>Repeat, switching arms.</li></ol>",
      "created": "2023-08-06T10:17:17.349574+02:00",
      "category": 8,
      "muscles": [],
      "muscles_secondary": [],
      "equipment": [
        3
      ],
      "language": 2,
      "license": 2,
      "license_author": "Miroslav Mazel (imported from Feeel)",
      "variations": [],
      "author_history": [
        "Miroslav Mazel (imported from Feeel)"
      ]
    },
    {
      "id": 2103,
      "uuid": "8bbc2f58-3d7c-4253-a76d-cfca61c74785",
      "name": "Aperturas en polea",
      "exercise_base": 1129,
      "description": "Este ejercicio trabaja y tensa todo el músculo del pecho. Este entrenamiento de pecho es bueno, pero el equipo generalmente solo se encuentra en gimnasios públicos.",
      "created": "2023-08-06T10:17:17.349574+02:00",
      "category": 11,
      "muscles": [
        2,
        1,
        4
      ],
      "muscles_secondary": [],
      "equipment": [],
      "language": 2,
      "license": 2,
      "license_author": "Franpol",
      "variations": [],
      "author_history": [
        "Franpol"
      ]
    },
    {
      "id": 2120,
      "uuid": "479dd60e-ad8e-4338-ad9e-7996da30c84b",
      "name": "Arabesque",
      "exercise_base": 1141,
      "description": "\n  \n\n    \n\n  \n  \n  Take all your weight onto one&nbsp;leg&nbsp;and you're going to&nbsp;maintain that position, keeping your hips and pelvis level the whole time. With&nbsp;your back in a neutral position you want to tilt yourself forward kicking your leg back up and then slowly with your glutes bring yourself back up to neutral.\n  \n\n\n  \n\n    \n\n  ",
      "created": "2023-08-06T10:17:17.349574+02:00",
      "category": 9,
      "muscles": [
        11,
        8
      ],
      "muscles_secondary": [],
      "equipment": [
        7
      ],
      "language": 2,
      "license": 2,
      "license_author": "cleen",
      "variations": [],
      "author_history": [
        "cleen"
      ]
    },
    {
      "id": 227,
      "uuid": "53ca25b3-61d9-4f72-bfdb-492b83484ff5",
      "name": "Arnold Shoulder Press",
      "exercise_base": 20,
      "description": "<p>Very common shoulder exercise.</p>\n<p> </p>\n<p>As shown here: https://www.youtube.com/watch?v=vj2w851ZHRM</p>",
      "created": "2023-08-06T10:17:17.349574+02:00",
      "category": 13,
      "muscles": [],
      "muscles_secondary": [],
      "equipment": [
        3
      ],
      "language": 2,
      "license": 1,
      "license_author": "trzr23",
      "variations": [
        227,
        329,
        256,
        190,
        152,
        155,
        123,
        119
      ],
      "author_history": [
        "trzr23"
      ]
    },
    {
      "id": 289,
      "uuid": "6add5973-86d0-4543-928a-6bb8b3f34efc",
      "name": "Axe Hold",
      "exercise_base": 31,
      "description": "<p>Grab dumbbells and extend arms to side and hold as long as you can</p>",
      "created": "2023-08-06T10:17:17.349574+02:00",
      "category": 8,
      "muscles": [],
      "muscles_secondary": [],
      "equipment": [
        3
      ],
      "language": 2,
      "license": 1,
      "license_author": "GrosseHund",
      "variations": [],
      "author_history": [
        "GrosseHund"
      ]
    },
    {
      "id": 2122,
      "uuid": "c6e202ff-0b92-4200-8a38-e09db554e6e0",
      "name": "Back extensión",
      "exercise_base": 1143,
      "description": "Espalda en maquina de extensión con peso",
      "created": "2023-08-06T10:17:17.349574+02:00",
      "category": 12,
      "muscles": [
        12,
        3
      ],
      "muscles_secondary": [],
      "equipment": [],
      "language": 2,
      "license": 2,
      "license_author": "Franpol",
      "variations": [],
      "author_history": [
        "Franpol"
      ]
    },
    {
      "id": 1884,
      "uuid": "e5a2e93a-e0b1-44e8-965d-c806bc2d2280",
      "name": "Back neck stretch",
      "exercise_base": 1010,
      "description": "<p>Starting position:</p><p>Sit upright on a chair or a firm pillow.</p><p>Steps:</p><ol><li>Breathe out and tilt your head forward, chin to chest, putting hands behind your head.</li><li>Use your hands to pull your head down lightly and press against your hands with your head to balance out the force.</li><li>Hold for a bit.</li><li>Relax your arms and head, opening up a bit with your shoulders.</li><li>Keep repeating this from step 2 onward.</li></ol>",
      "created": "2023-08-06T10:17:17.349574+02:00",
      "category": 12,
      "muscles": [],
      "muscles_secondary": [],
      "equipment": [
        7
      ],
      "language": 2,
      "license": 2,
      "license_author": "Miroslav Mazel (imported from Feeel)",
      "variations": [],
      "author_history": [
        "Miroslav Mazel (imported from Feeel)"
      ]
    },
    {
      "id": 1702,
      "uuid": "b1079220-e97d-4487-8130-7bea2d6d5c75",
      "name": "Backward arm circles",
      "exercise_base": 995,
      "description": "<p>Starting position:</p><p>Stand tall with your back straight.</p><p>Steps:</p><ol><li>Keeping your arms straight, bring them in front of you, raise them over your head, then continue the motion behind your back and down to the initial position.</li><li>Keep circling your arms as described in step 1.</li></ol>",
      "created": "2023-08-06T10:17:17.349574+02:00",
      "category": 8,
      "muscles": [],
      "muscles_secondary": [],
      "equipment": [
        7
      ],
      "language": 2,
      "license": 2,
      "license_author": "Miroslav Mazel (imported from Feeel)",
      "variations": [
        1687,
        1702
      ],
      "author_history": [
        "Miroslav Mazel (imported from Feeel)"
      ]
    },
    {
      "id": 1826,
      "uuid": "b461b63e-39cc-4ce5-9cd1-fd3094004e38",
      "name": "Backward shoulder rotation",
      "exercise_base": 1005,
      "description": "<p>Starting position:</p><p>Sit or stand with your back straight.</p><p>Steps:</p><ol><li>Place your hands on your shoulders.</li><li>Repeatedly rotate both shoulder joints in a circular motion at a moderate pace.</li></ol>",
      "created": "2023-08-06T10:17:17.349574+02:00",
      "category": 12,
      "muscles": [],
      "muscles_secondary": [],
      "equipment": [
        7
      ],
      "language": 2,
      "license": 2,
      "license_author": "Miroslav Mazel (imported from Feeel)",
      "variations": [
        1814,
        1826
      ],
      "author_history": [
        "Miroslav Mazel (imported from Feeel)"
      ]
    },
    {
      "id": 2046,
      "uuid": "4ed2c6a0-9a03-41c3-b7e9-287342080fa9",
      "name": "Bag training",
      "exercise_base": 1092,
      "description": "Bag training improves muscle definition of: deltoids; rear deltoids; triceps; biceps, as well as being a great cardio exercise",
      "created": "2023-08-06T10:17:17.349574+02:00",
      "category": 15,
      "muscles": [
        2,
        4,
        9
      ],
      "muscles_secondary": [
        1,
        11,
        7,
        12,
        14,
        6
      ],
      "equipment": [
        7
      ],
      "language": 2,
      "license": 2,
      "license_author": "clafal",
      "variations": [],
      "author_history": [
        "clafal"
      ]
    },
    {
      "id": 1051,
      "uuid": "52a4cc0b-6d56-479d-b3b3-4a6a390cc379",
      "name": "Ball crunches",
      "exercise_base": 165,
      "description": "",
      "created": "2023-08-06T10:17:17.349574+02:00",
      "category": 10,
      "muscles": [],
      "muscles_secondary": [],
      "equipment": [],
      "language": 2,
      "license": 2,
      "license_author": "",
      "variations": [
        92,
        1051,
        94,
        1052,
        91,
        416,
        93,
        170,
        95,
        176
      ],
      "author_history": []
    }
  ]
}