{
  "count": 188,
  "next": "https://wger.de/api/v2/exercise/?language=1&limit=20&offset=20",
  "previous": null,
  "results": [
    {
      "id": 174,
      "uuid": "99881bdd-43d7-4c3b-82ed-9c187d0455b7",
      "name": "Abduktoren-Maschine",
      "exercise_base": 12,
      "description": "<ul>\n<li>in eine aufrechte Position setzen, bei der die Beine hüftbreit geöffnet sind</li>\n<li>den Rücken, die Knie und die Oberschenkelaußenseite an die jeweiligen Polster pressen</li>\n<li>mit den Händen an den Griffen festhalten</li>\n<li>die Oberschenkel bis zum Anschlagpunkt der Hebelarme auseinander drücken</li>\n<li>danach die Beine wieder zusammen führen</li>\n<li>das Gesäß nicht vom Sitz abheben</li>\n<li>beim Auseinanderdrücken der Hebelarme aus- und beim Zusammenführen einatmen</li>\n</ul>",
      "created": "2023-08-06T10:17:17.349574+02:00",
      "category": 9,
      "muscles": [
        8
      ],
      "muscles_secondary": [],
      "equipment": [],
      "language": 1,
      "license": 1,
      "license_author": "flori",
      "variations": [],
      "author_history": [
        "flori"
      ]
    },
    {
      "id": 1906,
      "uuid": "afd72ed7-5ca8-47a8-ae8f-5f24679b995c",
      "name": "Abwechselnde Bizepscurls",
      "exercise_base": 1012,
      "description": "<p>Ausgangsposition:</p><p>Beginnen Sie im Stehen mit Kurzhanteln in jeder Hand, mit geradem Rücken und hüftbreit auseinander stehenden Füßen. Die Arme sind entspannt und zeigen nach unten. Die Knie sollten leicht gebeugt, die Bauchmuskeln angespannt und die Schultern nach unten gerichtet sein.</p><p>Die Schritte:</p><ol><li>Beugen Sie einen Arm am Ellenbogen und führen Sie die Hantel bis zur Schulter. Ihr Oberarm sollte während dieser Bewegung unbeweglich bleiben.</li><li>Bringen Sie die Hantel wieder nach unten, bis sich Ihr Arm in seiner ursprünglichen, entspannten Position befindet.</li><li>Wiederholen Sie die Übung mit dem anderen Arm.</li></ol>",
      "created": "2023-08-06T10:17:17.349574+02:00",
      "category": 8,
      "muscles": [],
      "muscles_secondary": [],
      "equipment": [
        3
      ],
      "language": 1,
      "license": 2,
      "license_author": "Miroslav Mazel (imported from Feeel)",
      "variations": [],
      "author_history": [
        "mondstern (imported from Feeel)",
        "Miroslav Mazel (imported from Feeel)"
      ]
    },
    {
      "id": 1701,
      "uuid": "00d7670f-7b5e-4734-ab39-cf297f8500a3",
      "name": "Armkreisen rückwärts",
      "exercise_base": 995,
      "description": "<p>Ausgangsposition:</p><p>Stehen Sie aufrecht mit geradem Rücken.</p><p>Schritte:</p><ol><li>Halten Sie die Arme gestreckt und führen Sie sie vor sich her, heben Sie sie über den Kopf und setzen Sie die Bewegung hinter dem Rücken fort, bis Sie wieder in die Ausgangsposition gelangen.</li><li>Kreisen Sie die Arme weiter wie in Schritt 1 beschrieben.</li></ol>",
      "created": "2023-08-06T10:17:17.349574+02:00",
      "category": 8,
      "muscles": [],
      "muscles_secondary": [],
      "equipment": [
        7
      ],
      "language": 1,
      "license": 2,
      "license_author": "Miroslav Mazel (imported from Feeel)",
      "variations": [
        1686,
        1701
      ],
      "author_history": [
        "mondstern (imported from Feeel)",
        "Miroslav Mazel (imported from Feeel)"
      ]
    },
    {
      "id": 1686,
      "uuid": "702671ea-c207-4757-b64b-c8666bbf9e47",
      "name": "Armkreisen vorwärts",
      "exercise_base": 994,
      "description": "<p>Ausgangsposition:</p><p>Stehen Sie aufrecht mit geradem Rücken.</p><p>Schritte:</p><ol><li>Führen Sie die Arme bei gestrecktem Körper vor sich her, führen Sie sie nach unten, hinter den Rücken, dann über den Kopf und zurück in die Ausgangsposition.</li><li>Lassen Sie die Arme wie in Schritt 1 beschrieben kreisen.</li></ol>",
      "created": "2023-08-06T10:17:17.349574+02:00",
      "category": 8,
      "muscles": [],
      "muscles_secondary": [],
      "equipment": [
        7
      ],
      "language": 1,
      "license": 2,
      "license_author": "Miroslav Mazel (imported from Feeel)",
      "variations": [
        1686,
        1701
      ],
      "author_history": [
        "mondstern (imported from Feeel)",
        "Miroslav Mazel (imported from Feeel)"
      ]
    },
    {
      "id": 228,
      "uuid": "880bff63-6798-4ffc-a818-b2a1ccfec0f7",
      "name": "Arnold Press",
      "exercise_base": 20,
      "description": "<p>Zwei Kurzhanteln mit den Handflächen nach innen vor der Brust halten, Ellbogen unterhalb der Handgelenke.</p>\n<p>Ellbogen nach außen bringen und Hanteln über den Kopf heben. Drehung kommt aus dem Ellbogen, nicht aus den Armen!</p>\n<p>Wenn die Arme durchgestreckt sind, die gleiche Bewegung rückwärts ausführen.</p>",
      "created": "2023-08-06T10:17:17.349574+02:00",
      "category": 13,
      "muscles": [],
      "muscles_secondary": [],
      "equipment": [
        3
      ],
      "language": 1,
      "license": 3,
      "license_author": "bloody_disgrace",
      "variations": [
        228,
        53,
        66,
        241,
        266
      ],
      "author_history": [
        "bloody_disgrace"
      ]
    },
    {
      "id": 1543,
      "uuid": "5fd169a1-09c3-470d-83b5-47e56c61ee07",
      "name": "Ausfallschritte",
      "exercise_base": 984,
      "description": "<p>Ausgangsposition:</p><p>Mit geradem Rücken stehen.</p><p>Schritte:</p><ol><li>Machen Sie mit dem linken Bein einen großen Schritt nach vorn.</li><li>Senken Sie Ihr Becken, bis Sie mit dem rechten Knie fast den Boden berühren.</li><li>Bringen Sie Ihr Becken wieder nach oben.</li><li>Kehren Sie in die Ausgangsposition zurück, indem Sie einen Schritt zurücktreten.</li><li>Wiederholen Sie den Vorgang und wechseln Sie dabei jedes Mal die Beine.</li></ol>",
      "created": "2023-08-06T10:17:17.349574+02:00",
      "category": 9,
      "muscles": [],
      "muscles_secondary": [],
      "equipment": [
        7
      ],
      "language": 1,
      "license": 2,
      "license_author": "Miroslav Mazel (imported from Feeel)",
      "variations": [
        1543,
        1752,
        55,
        5
      ],
      "author_history": [
        "mondstern (imported from Feeel)",
        "Miroslav Mazel (imported from Feeel)"
      ]
    },
    {
      "id": 5,
      "uuid": "5675ae61-6597-4806-ae5c-2dda5a5ac03c",
      "name": "Ausfallschritte im Gehen",
      "exercise_base": 206,
      "description": "<p>.</p>",
      "created": "2023-08-06T10:17:17.349574+02:00",
      "category": 9,
      "muscles": [
        10
      ],
      "muscles_secondary": [
        8
      ],
      "equipment": [
        3
      ],
      "language": 1,
      "license": 2,
      "license_author": "wger.de",
      "variations": [
        1543,
        1752,
        55,
        5
      ],
      "author_history": [
        "wger.de"
      ]
    },
    {
      "id": 55,
      "uuid": "27301836-ed7f-4510-83e7-66c0b8041a44",
      "name": "Ausfallschritte Stehend",
      "exercise_base": 205,
      "description": "<p>.</p>",
      "created": "2023-08-06T10:17:17.349574+02:00",
      "category": 9,
      "muscles": [
        10
      ],
      "muscles_secondary": [
        8
      ],
      "equipment": [
        3
      ],
      "language": 1,
      "license": 2,
      "license_author": "wger.de",
      "variations": [
        1543,
        1752,
        55,
        5
      ],
      "author_history": [
        "wger.de"
      ]
    },
    {
      "id": 677,
      "uuid": "8e9d8968-323d-468c-9174-8cf11a105fad",
      "name": "Axe Hold",
      "exercise_base": 31,
      "description": "<p>Nehmen Sie die Hanteln und strecken Sie die Arme zur Seite. Halten Sie sie so lange wie möglich.</p>",
      "created": "2023-08-06T10:17:17.349574+02:00",
      "category": 8,
      "muscles": [],
      "muscles_secondary": [],
      "equipment": [
        3
      ],
      "language": 1,
      "license": 2,
      "license_author": "Wunschcoach",
      "variations": [],
      "author_history": [
        "Wunschcoach"
      ]
    },
    {
      "id": 38,
      "uuid": "4def60e7-ed8d-4a9d-bf76-ceb15ecf9779",
      "name": "Bankdrücken Eng",
      "exercise_base": 76,
      "description": "<p>Lege dich auf die Bank, die Stange direkt über die Augen, die Knie etwas angewinkelt und die Füße fest auf dem Boden. Greife nun die Stange mit einem engen Griff (nicht mehr als 20cm.). Führe nun das Gewicht so weit nach unten, bis die Oberarme paralell zum Boden sind, gehe dann wieder nach obern. Bringe die Stange nicht wie beim (breiten) Bankdrücken auf Brusthöhe runter, sondern weiter unten. Auf der tiefsten Stelle sollten deine Arme einen rechten Winkel machen.</p>",
      "created": "2023-08-06T10:17:17.349574+02:00",
      "category": 8,
      "muscles": [
        5
      ],
      "muscles_secondary": [
        2,
        4
      ],
      "equipment": [
        1,
        8
      ],
      "language": 1,
      "license": 2,
      "license_author": "wger.de",
      "variations": [
        77,
        15,
        38,
        17,
        720,
        725,
        41,
        16,
        61
      ],
      "author_history": [
        "wger.de"
      ]
    },
    {
      "id": 77,
      "uuid": "06450bcb-03a8-4bd7-8349-ef677ee57ea3",
      "name": "Bankdrücken KH",
      "exercise_base": 75,
      "description": "<p>Der Bewegungsablauf ist ähnlich zur Übung mit einer Langhantel.</p>\n<p>Nehme die Gewichte in die Hände und lege dich auf die Bank. Halte die Hanteln neben der Brust auf Brustwarzenhöhe und drücke sie nun nach oben, bis die Arme ausgestreckt sind. Lasse die Gewichte nun langsam und kontrolliert runter.</p>\n<p> </p>",
      "created": "2023-08-06T10:17:17.349574+02:00",
      "category": 11,
      "muscles": [
        4
      ],
      "muscles_secondary": [
        2,
        5
      ],
      "equipment": [
        8,
        3
      ],
      "language": 1,
      "license": 2,
      "license_author": "wger.de",
      "variations": [
        77,
        15,
        38,
        17,
        720,
        725,
        41,
        16,
        61
      ],
      "author_history": [
        "wger.de"
      ]
    },
    {
      "id": 15,
      "uuid": "198dcb2e-e35f-4b69-ae8b-e1124d438eae",
      "name": "Bankdrücken LH",
      "exercise_base": 73,
      "description": "<p>Lege dich auf die Bank, die Stange direkt über die Augen, die Knie etwas angewinkelt und die Füße fest auf dem Boden. Greife die Stange breit und lasse sie langsam und kontrolliert runter, dabei sollte die Stange kurz auf Brustwarzenhöhe den Körper berühren. Dann das Gewicht wieder hochdrücken bis die Arme durchgestreckt sind.</p>\n<p>Bei hohem Gewicht, empfielt sich natürlich einen <em>Spotter</em> zu haben, der einen hilft falls man die Stange nicht alleine hochdrücken kann.</p>\n<p>Mit der Breite des Griffs kann außerdem kontrolliert werden, welcher Bereich der Brust stärker belastet wird:</p>\n<ul>\n<li>breiter Griff: äußere Brustmuskeln</li>\n<li>enger Griff: innere Brustmuskeln und Trizeps</li>\n</ul>",
      "created": "2023-08-06T10:17:17.349574+02:00",
      "category": 11,
      "muscles": [
        4
      ],
      "muscles_secondary": [
        2,
        5
      ],
      "equipment": [
        1,
        8
      ],
      "language": 1,
      "license": 2,
      "license_author": "wger.de",
      "variations": [
        77,
        15,
        38,
        17,
        720,
        725,
        41,
        16,
        61
      ],
      "author_history": [
        "wger.de"
      ]
    },
    {
      "id": 259,
      "uuid": "c659577f-d9de-4e39-bcd1-1b0bf1f62d11",
      "name": "Bauch Stabilisation",
      "exercise_base": 56,
      "description": "<p>Auf Rolle liegend</p>",
      "created": "2023-08-06T10:17:17.349574+02:00",
      "category": 10,
      "muscles": [
        6
      ],
      "muscles_secondary": [
        14
      ],
      "equipment": [
        4
      ],
      "language": 1,
      "license": 1,
      "license_author": "andikeller",
      "variations": [],
      "author_history": [
        "andikeller"
      ]
    },
    {
      "id": 718,
      "uuid": "e4b3da5b-1803-42af-a50e-ffbac3853cd0",
      "name": "Bear Walk",
      "exercise_base": 57,
      "description": "<p>-Stützen Sie Ihr Gewicht auf Ihren Handflächen und Ihren Füßen, nicht anders als in der normalen Liegestützposition</p>\n<p> </p>\n<p>- Bewegen Sie sich, indem Sie mit der R-Handfläche und dem L-Fuß, dann mit der L-Handfläche und dem R-Fuß treten. Gehen Sie im Grunde wie ein trampelnder Bär.</p>\n<p> </p>\n<p>-Bewegen Sie sich so schnell wie möglich. Messen Sie Ihre Wiederholungen / Sätze entweder in der Entfernung (d. H. 40 Meter) oder in der Zeit (d. H. 45 Sekunden).</p>\n<p> </p>\n<p>-Arbeitet an Pecs, Deltamuskeln, Trizeps, Trapezius, Lats, Abs und Lendenwirbelsäule, Hüftbeugern, Quads, Gesäßmuskeln und Waden</p>",
      "created": "2023-08-06T10:17:17.349574+02:00",
      "category": 11,
      "muscles": [
        2,
        7,
        4,
        6,
        3,
        15,
        5
      ],
      "muscles_secondary": [
        8,
        12,
        14,
        10,
        9
      ],
      "equipment": [
        7
      ],
      "language": 1,
      "license": 2,
      "license_author": "Wunschcoach",
      "variations": [],
      "author_history": [
        "Wunschcoach"
      ]
    },
    {
      "id": 230,
      "uuid": "981ef1f0-414a-478b-bc1b-9c6afa45bc77",
      "name": "Beckenheben",
      "exercise_base": 294,
      "description": "<p>Lege dich auf die Matte, die Arme sind ausgestreckt und bilden einen rechten Winkel mit dem Körper. Bringe mit etwas Schwung die Beine in eine senkrechte Position. Hebe nun mit einer kontrollierten Bewegung den Becken etwa 5 cm. hoch. und bringe ihn langsam wieder runter. Ohne Pausen wird die Bewegung wiederholt.</p>",
      "created": "2023-08-06T10:17:17.349574+02:00",
      "category": 9,
      "muscles": [
        8
      ],
      "muscles_secondary": [],
      "equipment": [
        1,
        8
      ],
      "language": 1,
      "license": 2,
      "license_author": "wger.de",
      "variations": [],
      "author_history": [
        "wger.de"
      ]
    },
    {
      "id": 22,
      "uuid": "8f0170a2-5274-4487-a295-1a9baf2c92a3",
      "name": "Beinbeuger Liegend",
      "exercise_base": 365,
      "description": "<p>Lege dich auf dem Bauch auf die Bank und klemme die Beine unter der Halterung (eher im unteren Wadenbereich ansetzen). Halte dich fest und bringe nun das Gewicht nach oben, in dem du die Beinbizeps zusammenziehst, gehe langsam wieder nach unten. Während der Übung muss der Körper fest bleiben.</p>",
      "created": "2023-08-06T10:17:17.349574+02:00",
      "category": 9,
      "muscles": [
        11
      ],
      "muscles_secondary": [],
      "equipment": [],
      "language": 1,
      "license": 2,
      "license_author": "wger.de",
      "variations": [
        22,
        72
      ],
      "author_history": [
        "wger.de"
      ]
    },
    {
      "id": 72,
      "uuid": "9075241c-0493-4f2a-a399-a57e3634093e",
      "name": "Beinbeuger Stehend",
      "exercise_base": 367,
      "description": "<p>Diese Übung wird jeweils mit einem Bein durchgeführt.</p>\n<p>Stelle dich vor der Maschine und stelle deine Waden hinter dem Polster (setzte die Höhe so ein, dass es knapp unter den Waden ansetzt). Beuge nun das Bein bis dein Knie einen rechten Winkel einnimmt, bringe das Gewicht nun langsam und kontrolliert wieder nach unten.</p>",
      "created": "2023-08-06T10:17:17.349574+02:00",
      "category": 9,
      "muscles": [
        11
      ],
      "muscles_secondary": [],
      "equipment": [],
      "language": 1,
      "license": 1,
      "license_author": "wger.de",
      "variations": [
        22,
        72
      ],
      "author_history": [
        "wger.de"
      ]
    },
    {
      "id": 1341,
      "uuid": "2c18f306-8230-4d77-8a95-c106cfefb4a7",
      "name": "Beine heben",
      "exercise_base": 376,
      "description": "<p>Ausgangsposition:</p><p>Lege Dich auf den Rücken, Füße zusammen, Arme an den Seiten.</p><p>Schritte:</p><ol><li>Beuge die Knie und strecke sie dann gerade nach oben.</li><li>Halte die Beine gerade und senke sie gemeinsam ab, ohne den Boden zu berühren. Je tiefer, desto intensiver ist die Übung.</li><li>Hebe beide Beine zusammen an, so dass sie wieder gerade nach oben zeigen.</li><li>Wiederholen ab Schritt 2.</li></ol>",
      "created": "2023-08-06T10:17:17.349574+02:00",
      "category": 9,
      "muscles": [
        14,
        6
      ],
      "muscles_secondary": [],
      "equipment": [],
      "language": 1,
      "license": 2,
      "license_author": "Miroslav Mazel (imported from Feeel)",
      "variations": [
        280,
        35,
        34,
        1341
      ],
      "author_history": [
        "mondstern (imported from Feeel)",
        "Miroslav Mazel (imported from Feeel)"
      ]
    },
    {
      "id": 714,
      "uuid": "68f96d3e-9172-468c-9018-06f71a97faff",
      "name": "Beinheben am Roman Chair",
      "exercise_base": 505,
      "description": "<p>Stütze dich mit dem Unterarmen ab und hänge im Gerät. Ziehe die Knie Richtung Brust und lasse sie wieder kontrolliert zum Boden zurück.</p>",
      "created": "2023-08-06T10:17:17.349574+02:00",
      "category": 10,
      "muscles": [],
      "muscles_secondary": [],
      "equipment": [],
      "language": 1,
      "license": 2,
      "license_author": "Wunschcoach",
      "variations": [],
      "author_history": [
        "Wunschcoach"
      ]
    },
    {
      "id": 35,
      "uuid": "ecff5124-9f6a-414a-b91a-70101847b76d",
      "name": "Beinheben Aufrecht",
      "exercise_base": 378,
      "description": "<p>Stelle dich mit den Unterarmen fest auf die Polster der Beinhebemaschine, der Körper hängt frei nach unten. Hebe nun die Beine so weit wie möglich nach oben, wobei an der höchsten Stelle eine kurze Pause eingelegt wird. Bringe sie dann langsam und kontrolliert wieder nach unten. Während der Übung darf der Körper nicht mitschwingen, nur die Beine sollten sich hier bewegen.</p>",
      "created": "2023-08-06T10:17:17.349574+02:00",
      "category": 10,
      "muscles": [
        6
      ],
      "muscles_secondary": [
        3
      ],
      "equipment": [],
      "language": 1,
      "license": 2,
      "license_author": "wger.de",
      "variations": [
        280,
        35,
        34,
        1341
      ],
      "author_history": [
        "wger.de"
      ]
    }
  ]
}